…
```r
nectar_perflower_clean$sugar_in_micrograms_flower_24h <- as.numeric(nectar_perflower_clean$sugar_in_micrograms_flower_24h)
nectar_perflower_clean$sugarmax_in_micrograms_flower_24h <- as.numeric(nectar_perflower_clean$sugarmax_in_micrograms_flower_24h)
nectar_perflower_clean$hum <- as.numeric(nectar_perflower_clean$hum)
nectar_perflower_clean$temp <- as.numeric(nectar_perflower_clean$temp)

nectar_perflower_clean
```

```
## # A tibble: 3,303 x 24
##    family  genus species  location habitat_class habitat_specific id     bagging
##    <chr>   <chr> <chr>    <chr>    <chr>         <chr>            <chr>  <chr>  
##  1 sapind~ acer  pseudop~ clifton~ grassland     <NA>             2012-~ bag    
##  2 sapind~ acer  pseudop~ clifton~ grassland     <NA>             2012-~ bag    
##  3 sapind~ acer  pseudop~ clifton~ grassland     <NA>             2012-~ bag    
##  4 sapind~ acer  pseudop~ clifton~ grassland     <NA>             2012-~ bag    
##  5 sapind~ acer  pseudop~ clifton~ grassland     <NA>             2012-~ bag    
##  6 sapind~ acer  pseudop~ clifton~ grassland     <NA>             2012-~ bag    
##  7 sapind~ acer  pseudop~ clifton~ grassland     <NA>             2012-~ bag    
##  8 sapind~ acer  pseudop~ clifton~ grassland     <NA>             2012-~ bag    
##  9 sapind~ acer  pseudop~ clifton~ grassland     <NA>             2012-~ bag    
## 10 sapind~ acer  pseudop~ clifton~ grassland     <NA>             2012-~ bag    
## # ... with 3,293 more rows, and 16 more variables: rinsing <chr>,
## #   bagging_day <chr>, bagging_month <chr>, bagging_hour <chr>,
## #   collection_day <chr>, collection_month <chr>, collection_hour <chr>,
## #   year <chr>, temp <dbl>, hum <dbl>, plant_no <chr>, flower_no <chr>,
## #   flower_age <chr>, flower_sex <chr>, sugar_in_micrograms_flower_24h <dbl>,
## #   sugarmax_in_micrograms_flower_24h <dbl>
```
…
```r
nectar_perflower_clean %>% 
  count(genus, species, sort = T)
```

```
## # A tibble: 175 x 3
##    genus         species           n
##    <chr>         <chr>         <int>
##  1 centaurea     nigra            40
##  2 hyacinthoides non              40
##  3 lonicera      periclymenum     40
##  4 trifolium     repens           40
##  5 arctium       minus            39
##  6 achillea      millefolium      30
##  7 angelica      sylvestris       30
##  8 brassica      napus            30
##  9 calluna       vulgaris         30
## 10 chamerion     angustifolium    30
## # ... with 165 more rows
```


```r
nectar_perflower_clean %>% 
  count(genus, sort = T)
```

```
## # A tibble: 125 x 2
##    genus          n
##    <chr>      <int>
##  1 ranunculus   103
##  2 cirsium       80
##  3 trifolium     80
##  4 geranium      69
##  5 sonchus       62
##  6 lamium        60
##  7 senecio       60
##  8 prunus        51
##  9 epilobium     50
## 10 erica         50
## # ... with 115 more rows
```
…
```r
nectar_perflower_clean %>% 
  count(family, habitat_class) %>% 
  arrange(desc(n))
```

```
## # A tibble: 125 x 3
##    family          habitat_class     n
##    <chr>           <chr>         <int>
##  1 asteraceae      grassland       375
##  2 fabaceae        grassland       211
##  3 lamiaceae       grassland       117
##  4 brassicaceae    grassland        87
##  5 apiaceae        grassland        80
##  6 rosaceae        grassland        79
##  7 ranunculaceae   grassland        73
##  8 caryophyllaceae grassland        72
##  9 asteraceae      woodland         69
## 10 caprifoliaceae  grassland        60
## # ... with 115 more rows
```
…
```r
nectar_perflower_clean %>% 
  group_by(genus) %>% 
  summarise(mean_nectar = mean(sugar_in_micrograms_flower_24h, na.rm = T)) %>% 
  arrange(mean_nectar)
```

```
## # A tibble: 125 x 2
##    genus        mean_nectar
##    <chr>              <dbl>
##  1 anagallis         0     
##  2 filipendula       0     
##  3 helianthemum      0     
##  4 hypericum         0     
##  5 mercurialis       0     
##  6 narthecium        0     
##  7 plantago          0     
##  8 sagina            0     
##  9 atriplex          0.0969
## 10 sanguisorba       0.105 
## # ... with 115 more rows
```
…
Cool, but we want to see them together!

```r
nectar_highlow <- nectar_perflower_clean %>%
  filter(genus == "atriplex" | genus == "sanguisorba" | genus == "pastinaca" | genus == "pulicaria" | genus == "lapsana" | genus == "impatiens" | genus == "iris" | genus == "gladiolus" | genus == "rubus" | genus == "lonicera") %>% 
  mutate(nectar_category = case_when(genus == "atriplex" | genus == "sanguisorba" | genus == "pastinaca" | genus == "pulicaria" | genus == "lapsana" ~ "low",
                                     genus == "impatiens" | genus == "iris" | genus == "gladiolus" | genus == "rubus" | genus == "lonicera" ~ "high"))
nectar_highlow
```

```
## # A tibble: 215 x 25
##    family  genus species location habitat_class habitat_specific id      bagging
##    <chr>   <chr> <chr>   <chr>    <chr>         <chr>            <chr>   <chr>  
##  1 amaran~ atri~ patula  pill al~ allotments    <NA>             2012-a~ bag    
##  2 amaran~ atri~ patula  pill al~ allotments    <NA>             2012-a~ bag    
##  3 amaran~ atri~ patula  pill al~ allotments    <NA>             2012-a~ bag    
##  4 amaran~ atri~ patula  pill al~ allotments    <NA>             2012-a~ bag    
##  5 amaran~ atri~ patula  pill al~ allotments    <NA>             2012-a~ bag    
##  6 amaran~ atri~ patula  pill al~ allotments    <NA>             2012-a~ bag    
##  7 amaran~ atri~ patula  pill al~ allotments    <NA>             2012-a~ bag    
##  8 amaran~ atri~ patula  pill al~ allotments    <NA>             2012-a~ bag    
##  9 amaran~ atri~ patula  pill al~ allotments    <NA>             2012-a~ bag    
## 10 amaran~ atri~ patula  pill al~ allotments    <NA>             2012-a~ bag    
## # ... with 205 more rows, and 17 more variables: rinsing <chr>,
## #   bagging_day <chr>, bagging_month <chr>, bagging_hour <chr>,
## #   collection_day <chr>, collection_month <chr>, collection_hour <chr>,
## #   year <chr>, temp <dbl>, hum <dbl>, plant_no <chr>, flower_no <chr>,
## #   flower_age <chr>, flower_sex <chr>, sugar_in_micrograms_flower_24h <dbl>,
## #   sugarmax_in_micrograms_flower_24h <dbl>, nectar_category <chr>
```
…
## Family Analysis
What about families?

```r
nectar_perflower_clean %>% 
  group_by(family) %>% 
  summarise(mean_nectar = mean(sugar_in_micrograms_flower_24h, na.rm = T)) %>% 
  arrange(desc(mean_nectar))
```

```
## # A tibble: 44 x 2
##    family         mean_nectar
##    <chr>                <dbl>
##  1 balsaminaceae        5112.
##  2 iridaceae            3305.
##  3 convolvulaceae        940.
##  4 rosaseae              887.
##  5 caprifoliaceae        809.
##  6 araliaceae            610.
##  7 boraginaceae          521.
##  8 ericaceae             392.
##  9 sapindaceae           291.
## 10 campanulaceae         290.
## # ... with 34 more rows
```
…
```r
nectar_perflower_clean %>% 
  group_by(family) %>% 
  summarise(n_obs = n()) %>% 
  arrange(desc(n_obs))
```

```
## # A tibble: 44 x 2
##    family          n_obs
##    <chr>           <int>
##  1 asteraceae        574
##  2 fabaceae          331
##  3 lamiaceae         227
##  4 rosaceae          187
##  5 brassicaceae      167
##  6 ranunculaceae     158
##  7 apiaceae          140
##  8 ericaceae         130
##  9 plantaginaceae    109
## 10 caryophyllaceae   107
## # ... with 34 more rows
```


## Specific Analysis: Asteraceae

```r
asteraceae <- nectar_perflower_clean %>% 
  filter(family == "asteraceae")
asteraceae$location <- as.factor(asteraceae$location)
asteraceae
```

```
## # A tibble: 574 x 24
##    family  genus species location habitat_class habitat_specific id      bagging
##    <chr>   <chr> <chr>   <fct>    <chr>         <chr>            <chr>   <chr>  
##  1 astera~ achi~ millef~ brandon~ grassland     nature reserve   2011-a~ bag    
##  2 astera~ achi~ millef~ brandon~ grassland     nature reserve   2011-a~ bag    
##  3 astera~ achi~ millef~ brandon~ grassland     nature reserve   2011-a~ bag    
##  4 astera~ achi~ millef~ brandon~ grassland     nature reserve   2011-a~ bag    
##  5 astera~ achi~ millef~ brandon~ grassland     nature reserve   2011-a~ bag    
##  6 astera~ achi~ millef~ brandon~ grassland     nature reserve   2011-a~ bag    
##  7 astera~ achi~ millef~ brandon~ grassland     nature reserve   2011-a~ bag    
##  8 astera~ achi~ millef~ brandon~ grassland     nature reserve   2011-a~ bag    
##  9 astera~ achi~ millef~ brandon~ grassland     nature reserve   2011-a~ bag    
## 10 astera~ achi~ millef~ brandon~ grassland     nature reserve   2011-a~ bag    
## # ... with 564 more rows, and 16 more variables: rinsing <chr>,
## #   bagging_day <chr>, bagging_month <chr>, bagging_hour <chr>,
## #   collection_day <chr>, collection_month <chr>, collection_hour <chr>,
## #   year <chr>, temp <dbl>, hum <dbl>, plant_no <chr>, flower_no <chr>,
## #   flower_age <chr>, flower_sex <chr>, sugar_in_micrograms_flower_24h <dbl>,
## #   sugarmax_in_micrograms_flower_24h <dbl>
```
…
