…
```r
nectar_perflower <- janitor::clean_names(nectar_perflower)
```


```r
nectar_perflower
```

```
## # A tibble: 3,303 x 19
##    species location habitat id    bagging rinsing bagging_date bagging_hour
##    <chr>   <chr>    <chr>   <chr> <chr>   <chr>   <chr>        <time>      
##  1 Acer p… clifton… grassl… 2012… bag     Y       3/5/12       16:00       
##  2 Acer p… clifton… grassl… 2012… bag     Y       3/5/12       16:00       
##  3 Acer p… clifton… grassl… 2012… bag     Y       3/5/12       16:00       
##  4 Acer p… clifton… grassl… 2012… bag     Y       3/5/12       16:00       
##  5 Acer p… clifton… grassl… 2012… bag     Y       3/5/12       16:00       
##  6 Acer p… clifton… grassl… 2012… bag     Y       3/5/12       16:00       
##  7 Acer p… clifton… grassl… 2012… bag     Y       3/5/12       16:00       
##  8 Acer p… clifton… grassl… 2012… bag     Y       3/5/12       16:00       
##  9 Acer p… clifton… grassl… 2012… bag     Y       3/5/12       16:00       
## 10 Acer p… clifton… grassl… 2012… bag     Y       3/5/12       16:00       
## # … with 3,293 more rows, and 11 more variables: collection_date <chr>,
## #   collection_hour <time>, year <dbl>, temp <dbl>, hum <dbl>, plant_no <dbl>,
## #   flower_no <dbl>, flower_age <chr>, flower_sex <chr>,
## #   sugar_in_micrograms_flower_24h <dbl>,
## #   sugarmax_in_micrograms_flower_24h <dbl>
```
…
```
## Warning: Expected 2 pieces. Additional pieces discarded in 245 rows [477, 478,
## 479, 480, 481, 482, 483, 484, 485, 486, 487, 488, 489, 490, 491, 492, 493, 494,
## 495, 496, ...].
```

```
## # A tibble: 3,303 x 22
##    genus species location habitat id    bagging rinsing bagging_day
##    <chr> <chr>   <chr>    <chr>   <chr> <chr>   <chr>   <chr>      
##  1 Acer  pseudo… clifton… grassl… 2012… bag     Y       3          
##  2 Acer  pseudo… clifton… grassl… 2012… bag     Y       3          
##  3 Acer  pseudo… clifton… grassl… 2012… bag     Y       3          
##  4 Acer  pseudo… clifton… grassl… 2012… bag     Y       3          
##  5 Acer  pseudo… clifton… grassl… 2012… bag     Y       3          
##  6 Acer  pseudo… clifton… grassl… 2012… bag     Y       3          
##  7 Acer  pseudo… clifton… grassl… 2012… bag     Y       3          
##  8 Acer  pseudo… clifton… grassl… 2012… bag     Y       3          
##  9 Acer  pseudo… clifton… grassl… 2012… bag     Y       3          
## 10 Acer  pseudo… clifton… grassl… 2012… bag     Y       3          
## # … with 3,293 more rows, and 14 more variables: bagging_month <chr>,
## #   bagging_year <chr>, bagging_hour <time>, collection_date <chr>,
## #   collection_hour <time>, year <dbl>, temp <dbl>, hum <dbl>, plant_no <dbl>,
## #   flower_no <dbl>, flower_age <chr>, flower_sex <chr>,
## #   sugar_in_micrograms_flower_24h <dbl>,
## #   sugarmax_in_micrograms_flower_24h <dbl>
```
…
### Exploration of the data: 

Habitats with the most nectar (using sugar_in_micrograms_flower_24h):

```r
nectar_perflower %>%
  group_by(habitat) %>%
  filter(sugar_in_micrograms_flower_24h != "NA") %>%
  summarize(mean_nectar = mean(sugar_in_micrograms_flower_24h)) %>%
  arrange(desc(mean_nectar))
```

```
## # A tibble: 31 x 2
##    habitat                  mean_nectar
##    <chr>                          <dbl>
##  1 pond                           3949.
##  2 managed grassland-garden       1424.
##  3 heathland-mooseland            1410.
##  4 street                          953.
##  5 hedgerow                        744.
##  6 woodland-carpark                605.
##  7 pot                             563.
##  8 wetland                         462.
##  9 cultivated farmland             437.
## 10 woodland                        424.
## # … with 21 more rows
```
Looks like the pond environment has the biggest average of nectar collected per flower. 

Habitats with the least nectar: 

```r
nectar_perflower %>%
  group_by(habitat) %>%
  filter(sugar_in_micrograms_flower_24h != "NA") %>%
  summarize(mean_nectar = mean(sugar_in_micrograms_flower_24h)) %>%
  arrange(mean_nectar)
```

```
## # A tibble: 31 x 2
##    habitat                 mean_nectar
##    <chr>                         <dbl>
##  1 bog                           0    
##  2 rock                          0    
##  3 hedgerow-woodland             0.307
##  4 coastland-grassland           1.41 
##  5 grassland-hedgerow           13.6  
##  6 grassland-carpark            18.7  
##  7 grassland-coastland          28.7  
##  8 allotments                   44.7  
##  9 heathland                    58.9  
## 10 woodland-nature reserve      59.9  
## # … with 21 more rows
```
…
Habitats with the most nectar (using sugarmax_in_micrograms_flower_24h instead to see if there are significant differences):

```r
nectar_perflower %>%
  group_by(habitat) %>%
  filter(sugarmax_in_micrograms_flower_24h != "NA") %>%
  summarize(mean_nectar_from_max = mean(sugarmax_in_micrograms_flower_24h)) %>%
  arrange(desc(mean_nectar_from_max))
```

```
## # A tibble: 31 x 2
##    habitat                  mean_nectar_from_max
##    <chr>                                   <dbl>
##  1 pond                                    3949.
##  2 managed grassland-garden                1424.
##  3 heathland-mooseland                     1410.
##  4 street                                   962.
##  5 hedgerow                                 752.
##  6 woodland-carpark                         629.
##  7 pot                                      564.
##  8 wetland                                  464.
##  9 cultivated farmland                      437.
## 10 woodland                                 426.
## # … with 21 more rows
```
Looks like we get the same results as we got when we analyzed the sugar_in_micrograms_flower_24h. I wonder now what the difference between the "sugarmax_in_micrograms_flower_24h" variable and the sugar_in_micrograms_flower_24h is. Why were these variables made seperate if they show the same results?


```r
nectar_perflower %>%
  group_by(habitat) %>%
  filter(sugarmax_in_micrograms_flower_24h != "NA") %>%
  summarize(mean_nectar_from_max = mean(sugarmax_in_micrograms_flower_24h)) %>%
  arrange(mean_nectar_from_max)
```

```
## # A tibble: 31 x 2
##    habitat                 mean_nectar_from_max
##    <chr>                                  <dbl>
##  1 bog                                    0    
##  2 rock                                   0    
##  3 hedgerow-woodland                      0.750
##  4 coastland-grassland                    4.68 
##  5 grassland-carpark                     22.9  
##  6 grassland-coastland                   31.3  
##  7 grassland-hedgerow                    45.2  
##  8 allotments                            50.0  
##  9 woodland-nature reserve               65.4  
## 10 grassland-wetland                     80.8  
## # … with 21 more rows
```
…
I performed the following analyses to figure out if there are any habitats which the scientists collected nectar from in 2011 and 2012: 

```r
nectar_perflower %>%
  group_by(habitat) %>%
  filter(sugar_in_micrograms_flower_24h != "NA") %>%
  filter(year == "2011")
```

```
## # A tibble: 1,759 x 19
## # Groups:   habitat [10]
##    species location habitat id    bagging rinsing bagging_date bagging_hour
##    <chr>   <chr>    <chr>   <chr> <chr>   <chr>   <chr>        <time>      
##  1 Achill… brandon… grassl… 2011… bag     Y       27/07/2011   11:30       
##  2 Achill… brandon… grassl… 2011… bag     Y       27/07/2011   11:30       
##  3 Achill… brandon… grassl… 2011… bag     Y       27/07/2011   11:30       
##  4 Achill… brandon… grassl… 2011… bag     Y       27/07/2011   11:30       
##  5 Achill… brandon… grassl… 2011… bag     Y       27/07/2011   11:30       
##  6 Achill… brandon… grassl… 2011… bag     Y       27/07/2011   11:30       
##  7 Achill… brandon… grassl… 2011… bag     Y       27/07/2011   11:30       
##  8 Achill… brandon… grassl… 2011… bag     Y       27/07/2011   11:30       
##  9 Achill… brandon… grassl… 2011… bag     Y       27/07/2011   11:30       
## 10 Achill… brandon… grassl… 2011… bag     Y       27/07/2011   11:30       
## # … with 1,749 more rows, and 11 more variables: collection_date <chr>,
## #   collection_hour <time>, year <dbl>, temp <dbl>, hum <dbl>, plant_no <dbl>,
## #   flower_no <dbl>, flower_age <chr>, flower_sex <chr>,
## #   sugar_in_micrograms_flower_24h <dbl>,
## #   sugarmax_in_micrograms_flower_24h <dbl>
```


```r
nectar_perflower %>%
  group_by(habitat) %>%
  filter(sugar_in_micrograms_flower_24h != "NA") %>%
  filter(year == "2012")
```

```
## # A tibble: 1,469 x 19
## # Groups:   habitat [23]
##    species location habitat id    bagging rinsing bagging_date bagging_hour
##    <chr>   <chr>    <chr>   <chr> <chr>   <chr>   <chr>        <time>      
##  1 Acer p… clifton… grassl… 2012… bag     Y       3/5/12       16:00       
##  2 Acer p… clifton… grassl… 2012… bag     Y       3/5/12       16:00       
##  3 Acer p… clifton… grassl… 2012… bag     Y       3/5/12       16:00       
##  4 Acer p… clifton… grassl… 2012… bag     Y       3/5/12       16:00       
##  5 Acer p… clifton… grassl… 2012… bag     Y       3/5/12       16:00       
##  6 Acer p… clifton… grassl… 2012… bag     Y       3/5/12       16:00       
##  7 Acer p… clifton… grassl… 2012… bag     Y       3/5/12       16:00       
##  8 Acer p… clifton… grassl… 2012… bag     Y       3/5/12       16:00       
##  9 Acer p… river f… wetland 2012… bag     N       15/04/2012   16:00       
## 10 Acer p… river f… wetland 2012… bag     N       15/04/2012   16:00       
## # … with 1,459 more rows, and 11 more variables: collection_date <chr>,
## #   collection_hour <time>, year <dbl>, temp <dbl>, hum <dbl>, plant_no <dbl>,
## #   flower_no <dbl>, flower_age <chr>, flower_sex <chr>,
## #   sugar_in_micrograms_flower_24h <dbl>,
## #   sugarmax_in_micrograms_flower_24h <dbl>
```
…
