…
```r
nectar_perflower <- janitor::clean_names(nectar_perflower)
```


```r
nectar_perflower
```

```
## # A tibble: 3,303 x 19
##    species location habitat id    bagging rinsing bagging_date bagging_hour
##    <chr>   <chr>    <chr>   <chr> <chr>   <chr>   <chr>        <time>      
##  1 Acer p… clifton… grassl… 2012… bag     Y       3/5/12       16:00       
##  2 Acer p… clifton… grassl… 2012… bag     Y       3/5/12       16:00       
##  3 Acer p… clifton… grassl… 2012… bag     Y       3/5/12       16:00       
##  4 Acer p… clifton… grassl… 2012… bag     Y       3/5/12       16:00       
##  5 Acer p… clifton… grassl… 2012… bag     Y       3/5/12       16:00       
##  6 Acer p… clifton… grassl… 2012… bag     Y       3/5/12       16:00       
##  7 Acer p… clifton… grassl… 2012… bag     Y       3/5/12       16:00       
##  8 Acer p… clifton… grassl… 2012… bag     Y       3/5/12       16:00       
##  9 Acer p… clifton… grassl… 2012… bag     Y       3/5/12       16:00       
## 10 Acer p… clifton… grassl… 2012… bag     Y       3/5/12       16:00       
## # … with 3,293 more rows, and 11 more variables: collection_date <chr>,
## #   collection_hour <time>, year <dbl>, temp <dbl>, hum <dbl>, plant_no <dbl>,
## #   flower_no <dbl>, flower_age <chr>, flower_sex <chr>,
## #   sugar_in_micrograms_flower_24h <dbl>,
## #   sugarmax_in_micrograms_flower_24h <dbl>
```
…
```
## Warning: Expected 2 pieces. Additional pieces discarded in 245 rows [477, 478,
## 479, 480, 481, 482, 483, 484, 485, 486, 487, 488, 489, 490, 491, 492, 493, 494,
## 495, 496, ...].
```

```
## # A tibble: 3,303 x 22
##    genus species location habitat id    bagging rinsing bagging_day
##    <chr> <chr>   <chr>    <chr>   <chr> <chr>   <chr>   <chr>      
##  1 Acer  pseudo… clifton… grassl… 2012… bag     Y       3          
##  2 Acer  pseudo… clifton… grassl… 2012… bag     Y       3          
##  3 Acer  pseudo… clifton… grassl… 2012… bag     Y       3          
##  4 Acer  pseudo… clifton… grassl… 2012… bag     Y       3          
##  5 Acer  pseudo… clifton… grassl… 2012… bag     Y       3          
##  6 Acer  pseudo… clifton… grassl… 2012… bag     Y       3          
##  7 Acer  pseudo… clifton… grassl… 2012… bag     Y       3          
##  8 Acer  pseudo… clifton… grassl… 2012… bag     Y       3          
##  9 Acer  pseudo… clifton… grassl… 2012… bag     Y       3          
## 10 Acer  pseudo… clifton… grassl… 2012… bag     Y       3          
## # … with 3,293 more rows, and 14 more variables: bagging_month <chr>,
## #   bagging_year <chr>, bagging_hour <time>, collection_date <chr>,
## #   collection_hour <time>, year <dbl>, temp <dbl>, hum <dbl>, plant_no <dbl>,
## #   flower_no <dbl>, flower_age <chr>, flower_sex <chr>,
## #   sugar_in_micrograms_flower_24h <dbl>,
## #   sugarmax_in_micrograms_flower_24h <dbl>
```
…
