…
```r
nectar_per_flower <- janitor::clean_names(nectar_per_flower)
nectar_per_flower
```

```
## # A tibble: 3,303 x 19
##    species  location  habitat id       bagging rinsing bagging_date bagging_hour
##    <chr>    <chr>     <chr>   <chr>    <chr>   <chr>   <chr>        <time>      
##  1 Acer ps… clifton-… grassl… 2012-Ac… bag     Y       3/5/12       16:00       
##  2 Acer ps… clifton-… grassl… 2012-Ac… bag     Y       3/5/12       16:00       
##  3 Acer ps… clifton-… grassl… 2012-Ac… bag     Y       3/5/12       16:00       
##  4 Acer ps… clifton-… grassl… 2012-Ac… bag     Y       3/5/12       16:00       
##  5 Acer ps… clifton-… grassl… 2012-Ac… bag     Y       3/5/12       16:00       
##  6 Acer ps… clifton-… grassl… 2012-Ac… bag     Y       3/5/12       16:00       
##  7 Acer ps… clifton-… grassl… 2012-Ac… bag     Y       3/5/12       16:00       
##  8 Acer ps… clifton-… grassl… 2012-Ac… bag     Y       3/5/12       16:00       
##  9 Acer ps… clifton-… grassl… 2012-Ac… bag     Y       3/5/12       16:00       
## 10 Acer ps… clifton-… grassl… 2012-Ac… bag     Y       3/5/12       16:00       
## # … with 3,293 more rows, and 11 more variables: collection_date <chr>,
## #   collection_hour <time>, year <dbl>, temp <dbl>, hum <dbl>, plant_no <dbl>,
## #   flower_no <dbl>, flower_age <chr>, flower_sex <chr>,
## #   sugar_in_micrograms_flower_24h <dbl>,
## #   sugarmax_in_micrograms_flower_24h <dbl>
```



```r
nectar_per_flower %>% 
  group_by(flower_no) %>% 
  summarise(total_flower_number=sum(flower_no))
```

```
## # A tibble: 43 x 2
##    flower_no total_flower_number
##  *     <dbl>               <dbl>
##  1         1                 175
##  2         2                 350
##  3         3                 525
##  4         4                 696
##  5         5                 870
##  6         6                1032
##  7         7                1183
##  8         8                1312
##  9         9                1440
## 10        10                1580
## # … with 33 more rows
```
…
